EESchema Schematic File Version 4
EELAYER 30 0
EELAYER END
$Descr A4 11693 8268
encoding utf-8
Sheet 1 1
Title ""
Date ""
Rev ""
Comp ""
Comment1 ""
Comment2 ""
Comment3 ""
Comment4 ""
$EndDescr
$Comp
L Device:Battery BT1
U 1 1 5E0A1871
P 3400 3500
F 0 "BT1" H 3508 3546 50  0000 L CNN
F 1 "Battery" H 3508 3455 50  0000 L CNN
F 2 "Battery:BatteryHolder_Keystone_2479_3xAAA" V 3400 3560 50  0001 C CNN
F 3 "~" V 3400 3560 50  0001 C CNN
	1    3400 3500
	1    0    0    -1  
$EndComp
$Comp
L MCU_Microchip_ATmega:ATmega328P-PU U1
U 1 1 5E0A2149
P 5300 3650
F 0 "U1" H 4656 3696 50  0000 R CNN
F 1 "ATmega328P-PU" H 4656 3605 50  0000 R CNN
F 2 "Package_DIP:DIP-28_W7.62mm" H 5300 3650 50  0001 C CIN
F 3 "http://ww1.microchip.com/downloads/en/DeviceDoc/ATmega328_P%20AVR%20MCU%20with%20picoPower%20Technology%20Data%20Sheet%2040001984A.pdf" H 5300 3650 50  0001 C CNN
	1    5300 3650
	1    0    0    -1  
$EndComp
$Comp
L Device:Crystal_Small Y1
U 1 1 5E09DDF2
P 6600 3150
F 0 "Y1" V 6750 3100 50  0000 L CNN
F 1 "16MHz" V 6450 3000 50  0000 L CNN
F 2 "Crystal:Crystal_HC18-U_Horizontal" H 6600 3150 50  0001 C CNN
F 3 "~" H 6600 3150 50  0001 C CNN
	1    6600 3150
	0    1    1    0   
$EndComp
Wire Wire Line
	6500 3150 6500 3250
Wire Wire Line
	6500 3250 6600 3250
$Comp
L Device:C_Small C1
U 1 1 5E0A0C2A
P 6800 3050
F 0 "C1" V 6600 3050 50  0000 C CNN
F 1 "22p" V 6700 3050 50  0000 C CNN
F 2 "Capacitor_THT:C_Disc_D7.5mm_W5.0mm_P7.50mm" H 6800 3050 50  0001 C CNN
F 3 "~" H 6800 3050 50  0001 C CNN
	1    6800 3050
	0    1    1    0   
$EndComp
$Comp
L Device:C_Small C2
U 1 1 5E0A154E
P 6800 3250
F 0 "C2" V 7000 3250 50  0000 C CNN
F 1 "22p" V 6900 3250 50  0000 C CNN
F 2 "Capacitor_THT:C_Disc_D7.5mm_W5.0mm_P7.50mm" H 6800 3250 50  0001 C CNN
F 3 "~" H 6800 3250 50  0001 C CNN
	1    6800 3250
	0    1    1    0   
$EndComp
Wire Wire Line
	6600 3050 6700 3050
Connection ~ 6600 3050
Wire Wire Line
	6600 3250 6700 3250
Connection ~ 6600 3250
Wire Wire Line
	6900 3050 6950 3050
Wire Wire Line
	6950 3050 6950 3150
Wire Wire Line
	6950 3250 6900 3250
$Comp
L power:GNDD #PWR0101
U 1 1 5E0A2579
P 7000 3150
F 0 "#PWR0101" H 7000 2900 50  0001 C CNN
F 1 "GNDD" V 7004 3040 50  0000 R CNN
F 2 "" H 7000 3150 50  0001 C CNN
F 3 "" H 7000 3150 50  0001 C CNN
	1    7000 3150
	0    -1   -1   0   
$EndComp
Wire Wire Line
	7000 3150 6950 3150
Connection ~ 6950 3150
Wire Wire Line
	6950 3150 6950 3250
$Comp
L Device:R_Small R1
U 1 1 5E0A370C
P 7400 3150
F 0 "R1" H 7459 3196 50  0000 L CNN
F 1 "1M" H 7459 3105 50  0000 L CNN
F 2 "Resistor_THT:R_Axial_DIN0309_L9.0mm_D3.2mm_P12.70mm_Horizontal" H 7400 3150 50  0001 C CNN
F 3 "~" H 7400 3150 50  0001 C CNN
	1    7400 3150
	1    0    0    -1  
$EndComp
$Comp
L Connector:Conn_01x08_Female J1
U 1 1 5E0A6F50
P 6250 4450
F 0 "J1" H 6278 4380 50  0000 L CNN
F 1 "Conn_01x08_Female" H 6278 4335 50  0001 L CNN
F 2 "Connector_PinHeader_2.54mm:PinHeader_1x08_P2.54mm_Vertical" H 6250 4450 50  0001 C CNN
F 3 "~" H 6250 4450 50  0001 C CNN
	1    6250 4450
	1    0    0    -1  
$EndComp
Wire Wire Line
	5900 4150 6050 4150
Wire Wire Line
	5900 4250 6050 4250
Wire Wire Line
	5900 4350 6050 4350
Wire Wire Line
	5900 4450 6050 4450
Wire Wire Line
	5900 4550 6050 4550
Wire Wire Line
	5900 4750 6050 4750
Wire Wire Line
	5900 4850 6050 4850
$Comp
L Connector:Conn_01x06_Female J2
U 1 1 5E0A9C98
P 6250 3550
F 0 "J2" H 6278 3480 50  0000 L CNN
F 1 "Conn_01x06_Female" H 6278 3435 50  0001 L CNN
F 2 "Connector_PinHeader_2.54mm:PinHeader_1x06_P2.54mm_Vertical" H 6250 3550 50  0001 C CNN
F 3 "~" H 6250 3550 50  0001 C CNN
	1    6250 3550
	1    0    0    -1  
$EndComp
Wire Wire Line
	5900 3050 6600 3050
Wire Wire Line
	5900 3150 6500 3150
Wire Wire Line
	5900 3350 6050 3350
Wire Wire Line
	5900 3450 6050 3450
Wire Wire Line
	5900 3550 6050 3550
Wire Wire Line
	5900 3650 6050 3650
Wire Wire Line
	5900 3750 6050 3750
Wire Wire Line
	5900 3850 6050 3850
$Comp
L Connector:Conn_01x08_Female J3
U 1 1 5E0B52C6
P 6250 2550
F 0 "J3" H 6278 2480 50  0000 L CNN
F 1 "Conn_01x08_Female" H 6278 2435 50  0001 L CNN
F 2 "Connector_PinHeader_2.54mm:PinHeader_1x08_P2.54mm_Vertical" H 6250 2550 50  0001 C CNN
F 3 "~" H 6250 2550 50  0001 C CNN
	1    6250 2550
	1    0    0    -1  
$EndComp
Wire Wire Line
	5900 2950 6050 2950
Wire Wire Line
	5900 2850 6050 2850
Wire Wire Line
	5900 2750 6050 2750
Wire Wire Line
	5900 2650 6050 2650
Wire Wire Line
	5900 2550 6050 2550
Wire Wire Line
	5900 2450 6050 2450
$Comp
L Device:Rotary_Encoder_Switch SW1
U 1 1 5E0BD98A
P 7100 4250
F 0 "SW1" H 7100 4525 50  0000 C CNN
F 1 "Rotary_Encoder_Switch" H 7100 4526 50  0001 C CNN
F 2 "Rotary_Encoder:RotaryEncoder_Alps_EC11E-Switch_Vertical_H20mm" H 6950 4410 50  0001 C CNN
F 3 "~" H 7100 4510 50  0001 C CNN
	1    7100 4250
	1    0    0    -1  
$EndComp
Wire Wire Line
	6800 4250 6750 4250
Wire Wire Line
	6750 4250 6750 4550
Wire Wire Line
	6750 4550 7100 4550
Wire Wire Line
	7450 4550 7450 4350
Wire Wire Line
	7450 4350 7400 4350
$Comp
L power:GNDD #PWR0102
U 1 1 5E0C53EC
P 7100 4600
F 0 "#PWR0102" H 7100 4350 50  0001 C CNN
F 1 "GNDD" H 7104 4445 50  0000 C CNN
F 2 "" H 7100 4600 50  0001 C CNN
F 3 "" H 7100 4600 50  0001 C CNN
	1    7100 4600
	1    0    0    -1  
$EndComp
Wire Wire Line
	7100 4600 7100 4550
Connection ~ 7100 4550
Wire Wire Line
	7100 4550 7450 4550
Wire Wire Line
	6500 4650 6500 4150
Wire Wire Line
	6500 4150 6800 4150
Wire Wire Line
	6800 4350 6550 4350
Wire Wire Line
	6550 4350 6550 4750
Wire Wire Line
	6450 3900 7450 3900
Wire Wire Line
	7450 3900 7450 4150
Wire Wire Line
	7450 4150 7400 4150
Wire Wire Line
	6450 3900 6450 4550
$Comp
L Device:R_Small R2
U 1 1 5E0CFAD4
P 6450 5200
F 0 "R2" H 6500 5250 50  0000 L CNN
F 1 "10K" H 6500 5150 50  0000 L CNN
F 2 "Resistor_THT:R_Axial_DIN0309_L9.0mm_D3.2mm_P12.70mm_Horizontal" H 6450 5200 50  0001 C CNN
F 3 "~" H 6450 5200 50  0001 C CNN
	1    6450 5200
	1    0    0    -1  
$EndComp
$Comp
L Device:R_Small R3
U 1 1 5E0D02B0
P 6700 5200
F 0 "R3" H 6750 5250 50  0000 L CNN
F 1 "10K" H 6750 5150 50  0000 L CNN
F 2 "Resistor_THT:R_Axial_DIN0309_L9.0mm_D3.2mm_P12.70mm_Horizontal" H 6700 5200 50  0001 C CNN
F 3 "~" H 6700 5200 50  0001 C CNN
	1    6700 5200
	1    0    0    -1  
$EndComp
$Comp
L Device:R_Small R4
U 1 1 5E0D0534
P 6950 5200
F 0 "R4" H 7009 5246 50  0000 L CNN
F 1 "10K" H 7000 5150 50  0000 L CNN
F 2 "Resistor_THT:R_Axial_DIN0309_L9.0mm_D3.2mm_P12.70mm_Horizontal" H 6950 5200 50  0001 C CNN
F 3 "~" H 6950 5200 50  0001 C CNN
	1    6950 5200
	1    0    0    -1  
$EndComp
Wire Wire Line
	6450 4550 6450 5100
Connection ~ 6450 4550
Wire Wire Line
	6500 4650 6500 5050
Wire Wire Line
	6500 5050 6700 5050
Wire Wire Line
	6700 5050 6700 5100
Connection ~ 6500 4650
Wire Wire Line
	6550 4750 6550 5000
Wire Wire Line
	6550 5000 6950 5000
Wire Wire Line
	6950 5000 6950 5100
Connection ~ 6550 4750
Wire Wire Line
	6450 5350 6450 5300
Wire Wire Line
	6450 5350 6700 5350
Wire Wire Line
	6950 5350 6950 5300
Wire Wire Line
	6700 5300 6700 5350
Connection ~ 6700 5350
Wire Wire Line
	6700 5350 6950 5350
$Comp
L power:+BATT #PWR0103
U 1 1 5E0E36D3
P 6700 5450
F 0 "#PWR0103" H 6700 5300 50  0001 C CNN
F 1 "+BATT" H 6715 5623 50  0000 C CNN
F 2 "" H 6700 5450 50  0001 C CNN
F 3 "" H 6700 5450 50  0001 C CNN
	1    6700 5450
	-1   0    0    1   
$EndComp
Wire Wire Line
	6700 5350 6700 5450
$Comp
L Device:C_Small C3
U 1 1 5E0A5112
P 5300 1950
F 0 "C3" H 5392 1996 50  0000 L CNN
F 1 "100nF" H 5392 1905 50  0000 L CNN
F 2 "Capacitor_THT:C_Axial_L5.1mm_D3.1mm_P7.50mm_Horizontal" H 5300 1950 50  0001 C CNN
F 3 "~" H 5300 1950 50  0001 C CNN
	1    5300 1950
	1    0    0    -1  
$EndComp
$Comp
L power:GNDD #PWR0104
U 1 1 5E0AA35A
P 5300 1750
F 0 "#PWR0104" H 5300 1500 50  0001 C CNN
F 1 "GNDD" H 5304 1595 50  0000 C CNN
F 2 "" H 5300 1750 50  0001 C CNN
F 3 "" H 5300 1750 50  0001 C CNN
	1    5300 1750
	-1   0    0    1   
$EndComp
Wire Wire Line
	5300 1750 5300 1800
Wire Wire Line
	5300 2150 5300 2100
$Comp
L power:GNDD #PWR0105
U 1 1 5E0AF1A6
P 5300 5250
F 0 "#PWR0105" H 5300 5000 50  0001 C CNN
F 1 "GNDD" H 5304 5095 50  0000 C CNN
F 2 "" H 5300 5250 50  0001 C CNN
F 3 "" H 5300 5250 50  0001 C CNN
	1    5300 5250
	1    0    0    -1  
$EndComp
Wire Wire Line
	5300 5150 5300 5250
Wire Wire Line
	5400 2150 5400 2100
Wire Wire Line
	5400 2100 5300 2100
Connection ~ 5300 2100
Wire Wire Line
	5300 2100 5300 2050
$Comp
L Device:R_Small R5
U 1 1 5E0BAD68
P 7200 3550
F 0 "R5" V 7100 3500 50  0000 C CNN
F 1 "1K" V 7100 3650 50  0000 C CNN
F 2 "Resistor_THT:R_Axial_DIN0309_L9.0mm_D3.2mm_P12.70mm_Horizontal" H 7200 3550 50  0001 C CNN
F 3 "~" H 7200 3550 50  0001 C CNN
	1    7200 3550
	0    1    1    0   
$EndComp
$Comp
L Device:R_Small R6
U 1 1 5E0BD603
P 7200 3650
F 0 "R6" V 7300 3600 50  0000 C CNN
F 1 "1K" V 7300 3750 50  0000 C CNN
F 2 "Resistor_THT:R_Axial_DIN0309_L9.0mm_D3.2mm_P12.70mm_Horizontal" H 7200 3650 50  0001 C CNN
F 3 "~" H 7200 3650 50  0001 C CNN
	1    7200 3650
	0    1    1    0   
$EndComp
Wire Wire Line
	5900 4650 6050 4650
Connection ~ 6050 4650
Wire Wire Line
	6050 4650 6500 4650
Wire Wire Line
	6050 4750 6550 4750
Connection ~ 6050 4750
Wire Wire Line
	6050 4550 6450 4550
Connection ~ 6050 4550
Wire Wire Line
	6050 4250 6400 4250
Wire Wire Line
	6400 4250 6400 3650
Wire Wire Line
	6400 3650 7100 3650
Connection ~ 6050 4250
Wire Wire Line
	6050 4150 6350 4150
Wire Wire Line
	6350 4150 6350 3550
Wire Wire Line
	6350 3550 7100 3550
Connection ~ 6050 4150
$Comp
L Connector:Conn_01x02_Female J4
U 1 1 5E0E805F
P 7600 3550
F 0 "J4" H 7628 3480 50  0000 L CNN
F 1 "Conn_01x02_Female" H 7628 3435 50  0001 L CNN
F 2 "Connector_PinHeader_2.54mm:PinHeader_1x02_P2.54mm_Vertical" H 7600 3550 50  0001 C CNN
F 3 "~" H 7600 3550 50  0001 C CNN
	1    7600 3550
	1    0    0    -1  
$EndComp
Wire Wire Line
	7300 3550 7400 3550
Wire Wire Line
	7300 3650 7400 3650
Text Notes 7550 3500 0    50   ~ 0
RX
Text Notes 7550 3750 0    50   ~ 0
TX
Text Notes 6300 2300 0    50   ~ 0
AREF
Text Notes 6300 2400 0    50   ~ 0
GND
Wire Wire Line
	5300 1800 5850 1800
Wire Wire Line
	5850 1800 5850 2350
Wire Wire Line
	5850 2350 6050 2350
Connection ~ 5300 1800
Wire Wire Line
	5300 1800 5300 1850
$Comp
L Device:R_Small R7
U 1 1 5E0FFEDE
P 7950 4000
F 0 "R7" H 8000 4050 50  0000 L CNN
F 1 "10K" H 8000 3950 50  0000 L CNN
F 2 "Resistor_THT:R_Axial_DIN0309_L9.0mm_D3.2mm_P12.70mm_Horizontal" H 7950 4000 50  0001 C CNN
F 3 "~" H 7950 4000 50  0001 C CNN
	1    7950 4000
	1    0    0    -1  
$EndComp
$Comp
L power:+BATT #PWR0106
U 1 1 5E1049B4
P 5150 2100
F 0 "#PWR0106" H 5150 1950 50  0001 C CNN
F 1 "+BATT" V 5165 2227 50  0000 L CNN
F 2 "" H 5150 2100 50  0001 C CNN
F 3 "" H 5150 2100 50  0001 C CNN
	1    5150 2100
	0    -1   -1   0   
$EndComp
Wire Wire Line
	5150 2100 5300 2100
Wire Wire Line
	6050 2250 6000 2250
Wire Wire Line
	5900 2250 5900 1500
Wire Wire Line
	5900 1500 4650 1500
Wire Wire Line
	4650 1500 4650 2450
Wire Wire Line
	4650 2450 4700 2450
$Comp
L power:+BATT #PWR0107
U 1 1 5E113CD4
P 7950 4200
F 0 "#PWR0107" H 7950 4050 50  0001 C CNN
F 1 "+BATT" H 7965 4373 50  0000 C CNN
F 2 "" H 7950 4200 50  0001 C CNN
F 3 "" H 7950 4200 50  0001 C CNN
	1    7950 4200
	-1   0    0    1   
$EndComp
Wire Wire Line
	7950 4200 7950 4100
$Comp
L Device:C_Small C4
U 1 1 5E11EDB4
P 6000 2100
F 0 "C4" H 6092 2146 50  0000 L CNN
F 1 "100nF" H 6092 2055 50  0000 L CNN
F 2 "Capacitor_THT:C_Axial_L5.1mm_D3.1mm_P7.50mm_Horizontal" H 6000 2100 50  0001 C CNN
F 3 "~" H 6000 2100 50  0001 C CNN
	1    6000 2100
	1    0    0    -1  
$EndComp
Wire Wire Line
	6000 2200 6000 2250
Connection ~ 6000 2250
Wire Wire Line
	6000 2250 5900 2250
$Comp
L power:GNDD #PWR0108
U 1 1 5E122141
P 6000 1950
F 0 "#PWR0108" H 6000 1700 50  0001 C CNN
F 1 "GNDD" H 6004 1795 50  0000 C CNN
F 2 "" H 6000 1950 50  0001 C CNN
F 3 "" H 6000 1950 50  0001 C CNN
	1    6000 1950
	-1   0    0    1   
$EndComp
Wire Wire Line
	6000 2000 6000 1950
$Comp
L Switch:SW_Push SW2
U 1 1 5E128CEC
P 7950 3600
F 0 "SW2" V 7904 3748 50  0000 L CNN
F 1 "reset" V 7995 3748 50  0000 L CNN
F 2 "Button_Switch_THT:SW_PUSH_6mm" H 7950 3800 50  0001 C CNN
F 3 "~" H 7950 3800 50  0001 C CNN
	1    7950 3600
	0    1    1    0   
$EndComp
Wire Wire Line
	7950 3800 7950 3850
Wire Wire Line
	7950 3850 6500 3850
Wire Wire Line
	6500 3850 6500 3950
Wire Wire Line
	6500 3950 5900 3950
Connection ~ 7950 3850
Wire Wire Line
	7950 3850 7950 3900
$Comp
L power:GNDD #PWR0109
U 1 1 5E14575E
P 7950 3300
F 0 "#PWR0109" H 7950 3050 50  0001 C CNN
F 1 "GNDD" H 7954 3145 50  0000 C CNN
F 2 "" H 7950 3300 50  0001 C CNN
F 3 "" H 7950 3300 50  0001 C CNN
	1    7950 3300
	-1   0    0    1   
$EndComp
Wire Wire Line
	7950 3300 7950 3400
$Comp
L power:+BATT #PWR0110
U 1 1 5E14F4F7
P 3400 3200
F 0 "#PWR0110" H 3400 3050 50  0001 C CNN
F 1 "+BATT" H 3415 3373 50  0000 C CNN
F 2 "" H 3400 3200 50  0001 C CNN
F 3 "" H 3400 3200 50  0001 C CNN
	1    3400 3200
	1    0    0    -1  
$EndComp
Wire Wire Line
	3400 3200 3400 3300
$Comp
L power:GNDD #PWR0111
U 1 1 5E152BF5
P 3400 3800
F 0 "#PWR0111" H 3400 3550 50  0001 C CNN
F 1 "GNDD" H 3404 3645 50  0000 C CNN
F 2 "" H 3400 3800 50  0001 C CNN
F 3 "" H 3400 3800 50  0001 C CNN
	1    3400 3800
	1    0    0    -1  
$EndComp
Wire Wire Line
	3400 3700 3400 3800
$Comp
L Device:R_Small R8
U 1 1 5E164153
P 7350 4850
F 0 "R8" V 7250 4850 50  0000 C CNN
F 1 "220" V 7450 4850 50  0000 C CNN
F 2 "Resistor_THT:R_Axial_DIN0309_L9.0mm_D3.2mm_P12.70mm_Horizontal" H 7350 4850 50  0001 C CNN
F 3 "~" H 7350 4850 50  0001 C CNN
	1    7350 4850
	0    1    1    0   
$EndComp
$Comp
L Device:LED D1
U 1 1 5E1678B0
P 7700 4850
F 0 "D1" H 7693 4595 50  0000 C CNN
F 1 "LED" H 7693 4686 50  0000 C CNN
F 2 "LED_THT:LED_D5.0mm_Clear" H 7700 4850 50  0001 C CNN
F 3 "~" H 7700 4850 50  0001 C CNN
	1    7700 4850
	-1   0    0    1   
$EndComp
$Comp
L power:GNDD #PWR0112
U 1 1 5E16F3FF
P 7950 4850
F 0 "#PWR0112" H 7950 4600 50  0001 C CNN
F 1 "GNDD" V 7954 4740 50  0000 R CNN
F 2 "" H 7950 4850 50  0001 C CNN
F 3 "" H 7950 4850 50  0001 C CNN
	1    7950 4850
	0    -1   -1   0   
$EndComp
Wire Wire Line
	6050 4450 6600 4450
Wire Wire Line
	6600 4450 6600 4850
Connection ~ 6050 4450
Wire Wire Line
	6600 3250 6600 3400
Wire Wire Line
	6600 3400 7400 3400
Wire Wire Line
	7400 3400 7400 3250
Wire Wire Line
	6600 3050 6600 2900
Wire Wire Line
	6600 2900 7400 2900
Wire Wire Line
	7400 2900 7400 3050
Wire Wire Line
	7450 4850 7550 4850
Wire Wire Line
	7850 4850 7950 4850
Wire Wire Line
	7250 4850 6600 4850
$EndSCHEMATC
